{"documents":[{"uuid":"1779af10-6d0c-11df-a2b2-0026b95e3eb7","title":"Neural Substrate of Cold-Seeking Behavior in Endotoxin Shock","publication_outlet":"PLoS ONE","year":2006,"mendeley_url":"http:\/\/www.mendeley.com\/research\/neural-substrate-cold-seeking-behavior-endotoxin-shock\/","doi":"10.1371\/journal.pone.0000001","authors":[{"forename":"Maria C","surname":"Almeida"},{"forename":"Alexandre A","surname":"Steiner"},{"forename":"Luiz G S","surname":"Branco"},{"forename":"Andrej A","surname":"Romanovsky"}]},{"uuid":"429aee60-6d08-11df-afb8-0026b95d30b2","title":"Seeking the neural code.","publication_outlet":"Scientific American","year":2006,"mendeley_url":"http:\/\/www.mendeley.com\/research\/seeking-neural-code-1\/","doi":null,"authors":[{"forename":"Miguel A L","surname":"Nicolelis"},{"forename":"Sidarta","surname":"Ribeiro"}]},{"uuid":"89d2cb40-04c0-11e0-95f0-0024e8453de6","title":"Polymers for neural implants","publication_outlet":"Journal of Polymer Science Part B: Polymer Physics","year":2011,"mendeley_url":"http:\/\/www.mendeley.com\/research\/polymers-neural-implants-1\/","doi":"10.1002\/polb.22169","authors":[{"forename":"Christina","surname":"Hassler"},{"forename":"Tim","surname":"Boretius"},{"forename":"Thomas","surname":"Stieglitz"}]},{"uuid":"b504e600-6d07-11df-a474-0026b95e3e23","title":"Neural substrate for motor control of feeding in amphibians.","publication_outlet":"Acta Anatomica","year":1998,"mendeley_url":"http:\/\/www.mendeley.com\/research\/neural-substrate-motor-control-feeding-amphibians\/","doi":null,"authors":[{"forename":"U","surname":"Dicke"},{"forename":"G","surname":"Roth"},{"forename":"T","surname":"Matsushima"}]},{"uuid":"0fd40ed1-cb1d-11df-922b-0024e8453de6","title":"Principles of Neural Science","publication_outlet":"Neurology","year":2000,"mendeley_url":"http:\/\/www.mendeley.com\/research\/principles-neural-science-1\/","doi":"10.1036\/0838577016","authors":[{"forename":"Eric R","surname":"Kandel"},{"forename":"James H","surname":"Schwartz"},{"forename":"Thomas M","surname":"Jessell"}]},{"uuid":"ec3669d0-6d04-11df-a2b2-0026b95e3eb7","title":"Relapse to drug-seeking: neural and molecular mechanisms.","publication_outlet":"Drug and Alcohol Dependence","year":1998,"mendeley_url":"http:\/\/www.mendeley.com\/research\/relapse-drug-seeking-neural-molecular-mechanisms-2\/","doi":null,"authors":[{"forename":"D W","surname":"Self"},{"forename":"E J","surname":"Nestler"}]},{"uuid":"78267540-6d03-11df-a2b2-0026b95e3eb7","title":"Neural mechanisms of birdsong memory.","publication_outlet":"Nature Reviews Neuroscience","year":2006,"mendeley_url":"http:\/\/www.mendeley.com\/research\/neural-mechanisms-birdsong-memory\/","doi":null,"authors":[{"forename":"Johan J","surname":"Bolhuis"},{"forename":"Manfred","surname":"Gahr"}]},{"uuid":"4342ee30-6d08-11df-afb8-0026b95d30b2","title":"Neural aspects of anticipatory behavior.","publication_outlet":"Acta Psychologica","year":1999,"mendeley_url":"http:\/\/www.mendeley.com\/research\/neural-aspects-anticipatory-behavior\/","doi":null,"authors":[{"forename":"C H","surname":"Brunia"}]},{"uuid":"9feab7d0-6d08-11df-a2b2-0026b95e3eb7","title":"The Neural Basis of Implicit Attitudes","publication_outlet":"Current Directions in Psychological Science","year":2008,"mendeley_url":"http:\/\/www.mendeley.com\/research\/neural-basis-implicit-attitudes\/","doi":"10.1111\/j.1467-8721.2008.00568.x","authors":[{"forename":"Damian","surname":"Stanley"},{"forename":"Elizabeth","surname":"Phelps"},{"forename":"Mahzarin","surname":"Banaji"}]},{"uuid":"17f9a5f0-8653-11e1-ac31-0024e8453de6","title":"Neural correlates of cognitive ability.","publication_outlet":"Journal of Neuroscience Research","year":2012,"mendeley_url":"http:\/\/www.mendeley.com\/research\/neural-correlates-cognitive-ability\/","doi":"10.1002\/jnr.23045","authors":[{"forename":"Alfredo","surname":"Brancucci"}]}],"total_results":1508999,"total_pages":150900,"current_page":0,"items_per_page":"10"}